%FSLAX44Y44*%
%MOMM*%
G71*
G01*
G75*
G04 Layer_Physical_Order=1*
G04 Layer_Color=255*
%ADD10R,3.0000X2.8000*%
%ADD11R,0.9500X0.8500*%
%ADD12R,0.8000X0.8000*%
%ADD13C,2.0000*%
%ADD14C,0.5000*%
%ADD15C,1.0000*%
%ADD16C,2.2860*%
%ADD17R,2.2860X2.2860*%
%ADD18C,5.6000*%
%ADD19R,1.7000X1.7000*%
%ADD20C,1.7000*%
%ADD21C,2.4000*%
%ADD22C,2.7000*%
%ADD23C,1.2700*%
G36*
X1175000Y125000D02*
X475000D01*
X475000Y125000D01*
X475000Y1499103D01*
X475898Y1500001D01*
X1175000D01*
Y125000D01*
D02*
G37*
%LPC*%
G36*
X510000Y771454D02*
X506233Y770959D01*
X502723Y769505D01*
X499708Y767192D01*
X497395Y764177D01*
X495941Y760667D01*
X495446Y756900D01*
X495941Y753133D01*
X497395Y749623D01*
X499708Y746608D01*
X502723Y744295D01*
X506233Y742841D01*
X510000Y742346D01*
X513767Y742841D01*
X517277Y744295D01*
X520292Y746608D01*
X522605Y749623D01*
X523296Y751292D01*
X655777D01*
X676035Y731035D01*
X676035D01*
X676035Y731035D01*
X676035D01*
X676035Y731035D01*
Y731035D01*
X676035Y731035D01*
Y731035D01*
X677854Y729819D01*
X680000Y729392D01*
X1034459D01*
X1034682Y728655D01*
X1036214Y725789D01*
X1038276Y723276D01*
X1040789Y721214D01*
X1043655Y719682D01*
X1046765Y718739D01*
X1050000Y718420D01*
X1053235Y718739D01*
X1056345Y719682D01*
X1059211Y721214D01*
X1061724Y723276D01*
X1063786Y725789D01*
X1065318Y728655D01*
X1066261Y731765D01*
X1066580Y735000D01*
X1066261Y738234D01*
X1065318Y741345D01*
X1063786Y744211D01*
X1061724Y746724D01*
X1059211Y748786D01*
X1056345Y750318D01*
X1053235Y751261D01*
X1050000Y751580D01*
X1046765Y751261D01*
X1043655Y750318D01*
X1040789Y748786D01*
X1038276Y746724D01*
X1036214Y744211D01*
X1034682Y741345D01*
X1034459Y740608D01*
X682323D01*
X662065Y760865D01*
X660246Y762081D01*
X658100Y762508D01*
X523296D01*
X522605Y764177D01*
X520292Y767192D01*
X517277Y769505D01*
X513767Y770959D01*
X510000Y771454D01*
D02*
G37*
G36*
X963000Y682000D02*
X927000D01*
Y648000D01*
X963000D01*
Y656931D01*
X1035604D01*
X1036214Y655789D01*
X1038276Y653276D01*
X1040789Y651214D01*
X1043655Y649682D01*
X1046765Y648739D01*
X1050000Y648420D01*
X1053235Y648739D01*
X1056345Y649682D01*
X1059211Y651214D01*
X1061724Y653276D01*
X1063786Y655789D01*
X1065318Y658655D01*
X1066261Y661765D01*
X1066580Y665000D01*
X1066261Y668235D01*
X1065318Y671345D01*
X1063786Y674211D01*
X1061724Y676724D01*
X1059211Y678786D01*
X1056345Y680318D01*
X1053235Y681261D01*
X1050000Y681580D01*
X1046765Y681261D01*
X1043655Y680318D01*
X1040789Y678786D01*
X1038276Y676724D01*
X1036214Y674211D01*
X1035604Y673069D01*
X963000D01*
Y682000D01*
D02*
G37*
G36*
X605000Y748112D02*
X601606Y747665D01*
X598444Y746356D01*
X595728Y744272D01*
X593645Y741556D01*
X592335Y738394D01*
X591888Y735000D01*
X592335Y731606D01*
X593645Y728444D01*
X595728Y725728D01*
X665728Y655728D01*
X665728Y655728D01*
X668444Y653644D01*
D01*
D01*
Y653644D01*
X668444Y653644D01*
D01*
D01*
X668444D01*
Y653644D01*
D01*
X668444D01*
Y653644D01*
X671606Y652335D01*
X675000Y651888D01*
X675000Y651888D01*
X862000D01*
Y648000D01*
X898000D01*
Y682000D01*
X862000D01*
Y678112D01*
X680431D01*
X614272Y744272D01*
X611556Y746356D01*
X608394Y747665D01*
X605000Y748112D01*
D02*
G37*
G36*
X1167992Y782730D02*
X1153270D01*
Y768008D01*
X1155144Y768192D01*
X1158168Y769109D01*
X1160955Y770599D01*
X1163397Y772603D01*
X1165401Y775045D01*
X1166891Y777832D01*
X1167808Y780856D01*
X1167992Y782730D01*
D02*
G37*
G36*
X1150730D02*
X1136008D01*
X1136192Y780856D01*
X1137109Y777832D01*
X1138599Y775045D01*
X1140603Y772603D01*
X1143046Y770599D01*
X1145832Y769109D01*
X1148856Y768192D01*
X1150730Y768008D01*
Y782730D01*
D02*
G37*
G36*
X524430Y809430D02*
X495570D01*
Y780570D01*
X524430D01*
Y789392D01*
X657677D01*
X686035Y761035D01*
D01*
X686035D01*
Y761035D01*
D01*
X686035D01*
Y761035D01*
X686035D01*
X686035Y761035D01*
Y761035D01*
X686035Y761035D01*
Y761035D01*
X687854Y759819D01*
X690000Y759392D01*
X1003852D01*
X1004682Y756655D01*
X1006214Y753789D01*
X1008276Y751276D01*
X1010789Y749214D01*
X1013655Y747682D01*
X1016766Y746739D01*
X1020000Y746420D01*
X1023235Y746739D01*
X1026345Y747682D01*
X1029211Y749214D01*
X1031724Y751276D01*
X1033786Y753789D01*
X1035318Y756655D01*
X1036261Y759765D01*
X1036580Y763000D01*
X1036261Y766235D01*
X1035318Y769345D01*
X1033786Y772211D01*
X1031724Y774724D01*
X1029211Y776786D01*
X1026345Y778318D01*
X1023235Y779261D01*
X1020000Y779580D01*
X1016766Y779261D01*
X1013655Y778318D01*
X1010789Y776786D01*
X1008276Y774724D01*
X1006214Y772211D01*
X1005357Y770608D01*
X692323D01*
X663965Y798965D01*
X662146Y800181D01*
X660000Y800608D01*
X524430D01*
Y809430D01*
D02*
G37*
G36*
X1018730Y635730D02*
X1004007D01*
X1004192Y633856D01*
X1005109Y630832D01*
X1006599Y628046D01*
X1008603Y625603D01*
X1011046Y623599D01*
X1013832Y622109D01*
X1016856Y621192D01*
X1018730Y621007D01*
Y635730D01*
D02*
G37*
G36*
X1153270Y631992D02*
Y617270D01*
X1167992D01*
X1167808Y619144D01*
X1166891Y622168D01*
X1165401Y624954D01*
X1163397Y627397D01*
X1160955Y629401D01*
X1158168Y630891D01*
X1155144Y631808D01*
X1153270Y631992D01*
D02*
G37*
G36*
X1150730D02*
X1148856Y631808D01*
X1145832Y630891D01*
X1143046Y629401D01*
X1140603Y627397D01*
X1138599Y624954D01*
X1137109Y622168D01*
X1136192Y619144D01*
X1136008Y617270D01*
X1150730D01*
Y631992D01*
D02*
G37*
G36*
X1021270Y652992D02*
Y638270D01*
X1035993D01*
X1035808Y640144D01*
X1034891Y643168D01*
X1033401Y645955D01*
X1031397Y648397D01*
X1028954Y650401D01*
X1026168Y651891D01*
X1023144Y652808D01*
X1021270Y652992D01*
D02*
G37*
G36*
X1018730D02*
X1016856Y652808D01*
X1013832Y651891D01*
X1011046Y650401D01*
X1008603Y648397D01*
X1006599Y645955D01*
X1005109Y643168D01*
X1004192Y640144D01*
X1004007Y638270D01*
X1018730D01*
Y652992D01*
D02*
G37*
G36*
X1035993Y635730D02*
X1021270D01*
Y621007D01*
X1023144Y621192D01*
X1026168Y622109D01*
X1028954Y623599D01*
X1031397Y625603D01*
X1033401Y628046D01*
X1034891Y630832D01*
X1035808Y633856D01*
X1035993Y635730D01*
D02*
G37*
G36*
X1150730Y799993D02*
X1148856Y799808D01*
X1145832Y798891D01*
X1143046Y797401D01*
X1140603Y795397D01*
X1138599Y792954D01*
X1137109Y790168D01*
X1136192Y787144D01*
X1136008Y785270D01*
X1150730D01*
Y799993D01*
D02*
G37*
G36*
X1021270Y872992D02*
Y858270D01*
X1035993D01*
X1035808Y860144D01*
X1034891Y863168D01*
X1033401Y865955D01*
X1031397Y868397D01*
X1028954Y870401D01*
X1026168Y871891D01*
X1023144Y872808D01*
X1021270Y872992D01*
D02*
G37*
G36*
X1018730D02*
X1016856Y872808D01*
X1013832Y871891D01*
X1011046Y870401D01*
X1008603Y868397D01*
X1006599Y865955D01*
X1005109Y863168D01*
X1004192Y860144D01*
X1004007Y858270D01*
X1018730D01*
Y872992D01*
D02*
G37*
G36*
X1035993Y855730D02*
X1021270D01*
Y841008D01*
X1023144Y841192D01*
X1026168Y842109D01*
X1028954Y843599D01*
X1031397Y845603D01*
X1033401Y848046D01*
X1034891Y850832D01*
X1035808Y853856D01*
X1035993Y855730D01*
D02*
G37*
G36*
X1050000Y971580D02*
X1046765Y971261D01*
X1043655Y970318D01*
X1040789Y968786D01*
X1038276Y966724D01*
X1036214Y964211D01*
X1034682Y961345D01*
X1034459Y960608D01*
X595000D01*
X592854Y960181D01*
X591035Y958965D01*
X566035Y933965D01*
X564819Y932146D01*
X564392Y930000D01*
Y882323D01*
X544577Y862508D01*
X523296D01*
X522605Y864177D01*
X520292Y867192D01*
X517277Y869505D01*
X513767Y870959D01*
X510000Y871454D01*
X506233Y870959D01*
X502723Y869505D01*
X499708Y867192D01*
X497395Y864177D01*
X495941Y860667D01*
X495446Y856900D01*
X495941Y853133D01*
X497395Y849623D01*
X499708Y846608D01*
X502723Y844295D01*
X506233Y842841D01*
X510000Y842346D01*
X513767Y842841D01*
X517277Y844295D01*
X520292Y846608D01*
X522605Y849623D01*
X523296Y851292D01*
X546900D01*
X549046Y851719D01*
X550865Y852935D01*
X550865Y852935D01*
X550865Y852935D01*
X573965Y876035D01*
X573965Y876035D01*
X573965Y876035D01*
X575181Y877854D01*
X575608Y880000D01*
Y927677D01*
X597323Y949392D01*
X1034459D01*
X1034682Y948655D01*
X1036214Y945789D01*
X1038276Y943276D01*
X1040789Y941214D01*
X1043655Y939682D01*
X1046765Y938739D01*
X1050000Y938420D01*
X1053235Y938739D01*
X1056345Y939682D01*
X1059211Y941214D01*
X1061724Y943276D01*
X1063786Y945789D01*
X1065318Y948655D01*
X1066261Y951765D01*
X1066580Y955000D01*
X1066261Y958234D01*
X1065318Y961345D01*
X1063786Y964211D01*
X1061724Y966724D01*
X1059211Y968786D01*
X1056345Y970318D01*
X1053235Y971261D01*
X1050000Y971580D01*
D02*
G37*
G36*
X963000Y902000D02*
X927000D01*
Y868000D01*
X963000D01*
Y876931D01*
X1035604D01*
X1036214Y875789D01*
X1038276Y873276D01*
X1040789Y871214D01*
X1043655Y869682D01*
X1046765Y868739D01*
X1050000Y868420D01*
X1053235Y868739D01*
X1056345Y869682D01*
X1059211Y871214D01*
X1061724Y873276D01*
X1063786Y875789D01*
X1065318Y878655D01*
X1066261Y881765D01*
X1066580Y885000D01*
X1066261Y888234D01*
X1065318Y891345D01*
X1063786Y894211D01*
X1061724Y896724D01*
X1059211Y898786D01*
X1056345Y900318D01*
X1053235Y901261D01*
X1050000Y901580D01*
X1046765Y901261D01*
X1043655Y900318D01*
X1040789Y898786D01*
X1038276Y896724D01*
X1036214Y894211D01*
X1035604Y893069D01*
X963000D01*
Y902000D01*
D02*
G37*
G36*
X605000Y943112D02*
X601606Y942665D01*
X598444Y941355D01*
X595728Y939272D01*
X593645Y936556D01*
X592335Y933394D01*
X591888Y930000D01*
X592335Y926606D01*
X593645Y923444D01*
X595728Y920728D01*
X640728Y875728D01*
D01*
X640728D01*
Y875728D01*
D01*
X640728D01*
Y875728D01*
X640728D01*
X640728Y875728D01*
Y875728D01*
X640728Y875728D01*
Y875728D01*
X643444Y873644D01*
X645680Y872718D01*
X646606Y872335D01*
X650000Y871888D01*
X862000D01*
Y868000D01*
X898000D01*
Y884148D01*
X898112Y885000D01*
X898000Y885852D01*
Y902000D01*
X862000D01*
Y898112D01*
X655431D01*
X614272Y939272D01*
X611556Y941355D01*
X608394Y942665D01*
X605000Y943112D01*
D02*
G37*
G36*
X1167992Y834730D02*
X1153270D01*
Y820007D01*
X1155144Y820192D01*
X1158168Y821109D01*
X1160955Y822599D01*
X1163397Y824603D01*
X1165401Y827046D01*
X1166891Y829832D01*
X1167808Y832856D01*
X1167992Y834730D01*
D02*
G37*
G36*
X1150730D02*
X1136008D01*
X1136192Y832856D01*
X1137109Y829832D01*
X1138599Y827046D01*
X1140603Y824603D01*
X1143046Y822599D01*
X1145832Y821109D01*
X1148856Y820192D01*
X1150730Y820007D01*
Y834730D01*
D02*
G37*
G36*
X1153270Y799993D02*
Y785270D01*
X1167992D01*
X1167808Y787144D01*
X1166891Y790168D01*
X1165401Y792954D01*
X1163397Y795397D01*
X1160955Y797401D01*
X1158168Y798891D01*
X1155144Y799808D01*
X1153270Y799993D01*
D02*
G37*
G36*
X1018730Y855730D02*
X1004007D01*
X1004192Y853856D01*
X1005109Y850832D01*
X1006599Y848046D01*
X1008603Y845603D01*
X1011046Y843599D01*
X1013832Y842109D01*
X1016856Y841192D01*
X1018730Y841008D01*
Y855730D01*
D02*
G37*
G36*
X1153270Y851992D02*
Y837270D01*
X1167992D01*
X1167808Y839144D01*
X1166891Y842168D01*
X1165401Y844954D01*
X1163397Y847397D01*
X1160955Y849401D01*
X1158168Y850891D01*
X1155144Y851808D01*
X1153270Y851992D01*
D02*
G37*
G36*
X1150730D02*
X1148856Y851808D01*
X1145832Y850891D01*
X1143046Y849401D01*
X1140603Y847397D01*
X1138599Y844954D01*
X1137109Y842168D01*
X1136192Y839144D01*
X1136008Y837270D01*
X1150730D01*
Y851992D01*
D02*
G37*
G36*
X1167992Y614730D02*
X1153270D01*
Y600008D01*
X1155144Y600192D01*
X1158168Y601109D01*
X1160955Y602599D01*
X1163397Y604603D01*
X1165401Y607046D01*
X1166891Y609832D01*
X1167808Y612856D01*
X1167992Y614730D01*
D02*
G37*
G36*
X1150730Y394730D02*
X1136008D01*
X1136192Y392856D01*
X1137109Y389832D01*
X1138599Y387046D01*
X1140603Y384603D01*
X1143046Y382599D01*
X1145832Y381109D01*
X1148856Y380192D01*
X1150730Y380008D01*
Y394730D01*
D02*
G37*
G36*
X1153270Y359992D02*
Y345270D01*
X1167992D01*
X1167808Y347144D01*
X1166891Y350168D01*
X1165401Y352954D01*
X1163397Y355397D01*
X1160955Y357401D01*
X1158168Y358891D01*
X1155144Y359808D01*
X1153270Y359992D01*
D02*
G37*
G36*
X1150730D02*
X1148856Y359808D01*
X1145832Y358891D01*
X1143046Y357401D01*
X1140603Y355397D01*
X1138599Y352954D01*
X1137109Y350168D01*
X1136192Y347144D01*
X1136008Y345270D01*
X1150730D01*
Y359992D01*
D02*
G37*
G36*
X1153270Y411992D02*
Y397270D01*
X1167992D01*
X1167808Y399144D01*
X1166891Y402168D01*
X1165401Y404954D01*
X1163397Y407397D01*
X1160955Y409401D01*
X1158168Y410891D01*
X1155144Y411808D01*
X1153270Y411992D01*
D02*
G37*
G36*
X1150730D02*
X1148856Y411808D01*
X1145832Y410891D01*
X1143046Y409401D01*
X1140603Y407397D01*
X1138599Y404954D01*
X1137109Y402168D01*
X1136192Y399144D01*
X1136008Y397270D01*
X1150730D01*
Y411992D01*
D02*
G37*
G36*
X1167992Y394730D02*
X1153270D01*
Y380008D01*
X1155144Y380192D01*
X1158168Y381109D01*
X1160955Y382599D01*
X1163397Y384603D01*
X1165401Y387046D01*
X1166891Y389832D01*
X1167808Y392856D01*
X1167992Y394730D01*
D02*
G37*
G36*
X510000Y571455D02*
X506233Y570959D01*
X502723Y569505D01*
X499708Y567192D01*
X497395Y564177D01*
X495941Y560667D01*
X495446Y556900D01*
X495941Y553133D01*
X497395Y549623D01*
X499708Y546608D01*
X502723Y544295D01*
X506233Y542841D01*
X510000Y542346D01*
X513767Y542841D01*
X517277Y544295D01*
X520292Y546608D01*
X522605Y549623D01*
X523296Y551292D01*
X550777D01*
X811035Y291035D01*
X811035D01*
X811035Y291035D01*
X811035Y291035D01*
Y291035D01*
X812854Y289819D01*
X815000Y289392D01*
X1034459D01*
X1034682Y288655D01*
X1036214Y285789D01*
X1038276Y283276D01*
X1040789Y281214D01*
X1043655Y279682D01*
X1046765Y278739D01*
X1050000Y278420D01*
X1053235Y278739D01*
X1056345Y279682D01*
X1059211Y281214D01*
X1061724Y283276D01*
X1063786Y285789D01*
X1065318Y288655D01*
X1066261Y291765D01*
X1066580Y295000D01*
X1066261Y298235D01*
X1065318Y301345D01*
X1063786Y304211D01*
X1061724Y306724D01*
X1059211Y308786D01*
X1056345Y310318D01*
X1053235Y311261D01*
X1050000Y311580D01*
X1046765Y311261D01*
X1043655Y310318D01*
X1040789Y308786D01*
X1038276Y306724D01*
X1036214Y304211D01*
X1034682Y301345D01*
X1034459Y300608D01*
X817323D01*
X557065Y560865D01*
X555246Y562081D01*
X553100Y562508D01*
X523296D01*
X522605Y564177D01*
X520292Y567192D01*
X517277Y569505D01*
X513767Y570959D01*
X510000Y571455D01*
D02*
G37*
G36*
X1075000Y231096D02*
X1070136Y230713D01*
X1065391Y229574D01*
X1060883Y227707D01*
X1056722Y225157D01*
X1053012Y221988D01*
X1049843Y218278D01*
X1047293Y214117D01*
X1045426Y209609D01*
X1044287Y204865D01*
X1043904Y200000D01*
X1044287Y195136D01*
X1045426Y190391D01*
X1047293Y185883D01*
X1049843Y181722D01*
X1053012Y178012D01*
X1056722Y174843D01*
X1060883Y172293D01*
X1065391Y170426D01*
X1070136Y169287D01*
X1075000Y168904D01*
X1079865Y169287D01*
X1084609Y170426D01*
X1089117Y172293D01*
X1093278Y174843D01*
X1096988Y178012D01*
X1100157Y181722D01*
X1102707Y185883D01*
X1104574Y190391D01*
X1105713Y195136D01*
X1106096Y200000D01*
X1105713Y204865D01*
X1104574Y209609D01*
X1102707Y214117D01*
X1100157Y218278D01*
X1096988Y221988D01*
X1093278Y225157D01*
X1089117Y227707D01*
X1084609Y229574D01*
X1079865Y230713D01*
X1075000Y231096D01*
D02*
G37*
G36*
X575000D02*
X570135Y230713D01*
X565391Y229574D01*
X560883Y227707D01*
X556722Y225157D01*
X553012Y221988D01*
X549843Y218278D01*
X547293Y214117D01*
X545426Y209609D01*
X544287Y204865D01*
X543904Y200000D01*
X544287Y195136D01*
X545426Y190391D01*
X547293Y185883D01*
X549843Y181722D01*
X553012Y178012D01*
X556722Y174843D01*
X560883Y172293D01*
X565391Y170426D01*
X570135Y169287D01*
X575000Y168904D01*
X579864Y169287D01*
X584609Y170426D01*
X589117Y172293D01*
X593278Y174843D01*
X596988Y178012D01*
X600157Y181722D01*
X602707Y185883D01*
X604574Y190391D01*
X605713Y195136D01*
X606096Y200000D01*
X605713Y204865D01*
X604574Y209609D01*
X602707Y214117D01*
X600157Y218278D01*
X596988Y221988D01*
X593278Y225157D01*
X589117Y227707D01*
X584609Y229574D01*
X579864Y230713D01*
X575000Y231096D01*
D02*
G37*
G36*
X1167992Y342730D02*
X1153270D01*
Y328008D01*
X1155144Y328192D01*
X1158168Y329109D01*
X1160955Y330599D01*
X1163397Y332603D01*
X1165401Y335046D01*
X1166891Y337832D01*
X1167808Y340856D01*
X1167992Y342730D01*
D02*
G37*
G36*
X1150730D02*
X1136008D01*
X1136192Y340856D01*
X1137109Y337832D01*
X1138599Y335046D01*
X1140603Y332603D01*
X1143046Y330599D01*
X1145832Y329109D01*
X1148856Y328192D01*
X1150730Y328008D01*
Y342730D01*
D02*
G37*
G36*
X524430Y609430D02*
X495570D01*
Y580570D01*
X524430D01*
Y589392D01*
X557677D01*
X823035Y324035D01*
X824854Y322819D01*
X827000Y322392D01*
X1003480D01*
X1003739Y319765D01*
X1004682Y316655D01*
X1006214Y313789D01*
X1008276Y311276D01*
X1010789Y309214D01*
X1013655Y307682D01*
X1016766Y306739D01*
X1020000Y306420D01*
X1023235Y306739D01*
X1026345Y307682D01*
X1029211Y309214D01*
X1031724Y311276D01*
X1033786Y313789D01*
X1035318Y316655D01*
X1036261Y319765D01*
X1036580Y323000D01*
X1036261Y326235D01*
X1035318Y329345D01*
X1033786Y332211D01*
X1031724Y334724D01*
X1029211Y336786D01*
X1026345Y338318D01*
X1023235Y339261D01*
X1020000Y339580D01*
X1016766Y339261D01*
X1013655Y338318D01*
X1010789Y336786D01*
X1008276Y334724D01*
X1007361Y333608D01*
X829323D01*
X563965Y598965D01*
X562146Y600181D01*
X560000Y600608D01*
X524430D01*
Y609430D01*
D02*
G37*
G36*
X1018730Y415730D02*
X1004007D01*
X1004192Y413856D01*
X1005109Y410832D01*
X1006599Y408046D01*
X1008603Y405603D01*
X1011046Y403599D01*
X1013832Y402109D01*
X1016856Y401192D01*
X1018730Y401007D01*
Y415730D01*
D02*
G37*
G36*
X1167992Y562730D02*
X1153270D01*
Y548008D01*
X1155144Y548192D01*
X1158168Y549109D01*
X1160955Y550599D01*
X1163397Y552603D01*
X1165401Y555046D01*
X1166891Y557832D01*
X1167808Y560856D01*
X1167992Y562730D01*
D02*
G37*
G36*
X1150730D02*
X1136008D01*
X1136192Y560856D01*
X1137109Y557832D01*
X1138599Y555046D01*
X1140603Y552603D01*
X1143046Y550599D01*
X1145832Y549109D01*
X1148856Y548192D01*
X1150730Y548008D01*
Y562730D01*
D02*
G37*
G36*
X524430Y709430D02*
X495570D01*
Y680570D01*
X524430D01*
Y689392D01*
X587677D01*
X736035Y541035D01*
X736035D01*
X736035Y541035D01*
X736035D01*
X736035Y541035D01*
Y541035D01*
X736035Y541035D01*
Y541035D01*
X737854Y539819D01*
X740000Y539392D01*
X1003852D01*
X1004682Y536655D01*
X1006214Y533789D01*
X1008276Y531276D01*
X1010789Y529214D01*
X1013655Y527682D01*
X1016766Y526739D01*
X1020000Y526420D01*
X1023235Y526739D01*
X1026345Y527682D01*
X1029211Y529214D01*
X1031724Y531276D01*
X1033786Y533789D01*
X1035318Y536655D01*
X1036261Y539765D01*
X1036580Y543000D01*
X1036261Y546235D01*
X1035318Y549345D01*
X1033786Y552211D01*
X1031724Y554724D01*
X1029211Y556786D01*
X1026345Y558318D01*
X1023235Y559261D01*
X1020000Y559580D01*
X1016766Y559261D01*
X1013655Y558318D01*
X1010789Y556786D01*
X1008276Y554724D01*
X1006214Y552211D01*
X1005357Y550608D01*
X742323D01*
X593965Y698965D01*
X592146Y700181D01*
X590000Y700608D01*
X524430D01*
Y709430D01*
D02*
G37*
G36*
X1150730Y614730D02*
X1136008D01*
X1136192Y612856D01*
X1137109Y609832D01*
X1138599Y607046D01*
X1140603Y604603D01*
X1143046Y602599D01*
X1145832Y601109D01*
X1148856Y600192D01*
X1150730Y600008D01*
Y614730D01*
D02*
G37*
G36*
X1153270Y579992D02*
Y565270D01*
X1167992D01*
X1167808Y567144D01*
X1166891Y570168D01*
X1165401Y572954D01*
X1163397Y575397D01*
X1160955Y577401D01*
X1158168Y578891D01*
X1155144Y579808D01*
X1153270Y579992D01*
D02*
G37*
G36*
X1150730D02*
X1148856Y579808D01*
X1145832Y578891D01*
X1143046Y577401D01*
X1140603Y575397D01*
X1138599Y572954D01*
X1137109Y570168D01*
X1136192Y567144D01*
X1136008Y565270D01*
X1150730D01*
Y579992D01*
D02*
G37*
G36*
X1021270Y432993D02*
Y418270D01*
X1035993D01*
X1035808Y420144D01*
X1034891Y423168D01*
X1033401Y425955D01*
X1031397Y428397D01*
X1028954Y430401D01*
X1026168Y431891D01*
X1023144Y432808D01*
X1021270Y432993D01*
D02*
G37*
G36*
X1018730D02*
X1016856Y432808D01*
X1013832Y431891D01*
X1011046Y430401D01*
X1008603Y428397D01*
X1006599Y425955D01*
X1005109Y423168D01*
X1004192Y420144D01*
X1004007Y418270D01*
X1018730D01*
Y432993D01*
D02*
G37*
G36*
X1035993Y415730D02*
X1021270D01*
Y401007D01*
X1023144Y401192D01*
X1026168Y402109D01*
X1028954Y403599D01*
X1031397Y405603D01*
X1033401Y408046D01*
X1034891Y410832D01*
X1035808Y413856D01*
X1035993Y415730D01*
D02*
G37*
G36*
X510000Y671454D02*
X506233Y670959D01*
X502723Y669505D01*
X499708Y667192D01*
X497395Y664177D01*
X495941Y660667D01*
X495446Y656900D01*
X495941Y653133D01*
X497395Y649623D01*
X499708Y646608D01*
X502723Y644295D01*
X506233Y642841D01*
X510000Y642346D01*
X513767Y642841D01*
X517277Y644295D01*
X520292Y646608D01*
X522605Y649623D01*
X523296Y651292D01*
X580777D01*
X721035Y511035D01*
X722854Y509819D01*
X725000Y509392D01*
X1034459D01*
X1034682Y508655D01*
X1036214Y505789D01*
X1038276Y503276D01*
X1040789Y501214D01*
X1043655Y499682D01*
X1046765Y498739D01*
X1050000Y498420D01*
X1053235Y498739D01*
X1056345Y499682D01*
X1059211Y501214D01*
X1061724Y503276D01*
X1063786Y505789D01*
X1065318Y508655D01*
X1066261Y511765D01*
X1066580Y515000D01*
X1066261Y518234D01*
X1065318Y521345D01*
X1063786Y524211D01*
X1061724Y526724D01*
X1059211Y528786D01*
X1056345Y530318D01*
X1053235Y531261D01*
X1050000Y531580D01*
X1046765Y531261D01*
X1043655Y530318D01*
X1040789Y528786D01*
X1038276Y526724D01*
X1036214Y524211D01*
X1034682Y521345D01*
X1034459Y520608D01*
X727323D01*
X587065Y660865D01*
X585246Y662081D01*
X583100Y662508D01*
X523296D01*
X522605Y664177D01*
X520292Y667192D01*
X517277Y669505D01*
X513767Y670959D01*
X510000Y671454D01*
D02*
G37*
G36*
X963000Y462000D02*
X927000D01*
Y428000D01*
X963000D01*
Y436931D01*
X1035604D01*
X1036214Y435789D01*
X1038276Y433276D01*
X1040789Y431214D01*
X1043655Y429682D01*
X1046765Y428739D01*
X1050000Y428420D01*
X1053235Y428739D01*
X1056345Y429682D01*
X1059211Y431214D01*
X1061724Y433276D01*
X1063786Y435789D01*
X1065318Y438655D01*
X1066261Y441765D01*
X1066580Y445000D01*
X1066261Y448235D01*
X1065318Y451345D01*
X1063786Y454211D01*
X1061724Y456724D01*
X1059211Y458786D01*
X1056345Y460318D01*
X1053235Y461261D01*
X1050000Y461580D01*
X1046765Y461261D01*
X1043655Y460318D01*
X1040789Y458786D01*
X1038276Y456724D01*
X1036214Y454211D01*
X1035604Y453069D01*
X963000D01*
Y462000D01*
D02*
G37*
G36*
X605000Y608112D02*
X601606Y607665D01*
X598444Y606356D01*
X595728Y604272D01*
X593645Y601556D01*
X592335Y598394D01*
X591888Y595000D01*
X592335Y591606D01*
X593645Y588444D01*
X595728Y585728D01*
X745728Y435728D01*
X745728Y435728D01*
X748444Y433644D01*
X750680Y432718D01*
X751606Y432335D01*
X755000Y431888D01*
X862000D01*
Y428000D01*
X898000D01*
Y462000D01*
X862000D01*
Y458112D01*
X760431D01*
X614272Y604272D01*
X611556Y606356D01*
X608394Y607665D01*
X605000Y608112D01*
D02*
G37*
G36*
X1018730Y1295730D02*
X1004007D01*
X1004192Y1293856D01*
X1005109Y1290832D01*
X1006599Y1288046D01*
X1008603Y1285603D01*
X1011046Y1283599D01*
X1013832Y1282109D01*
X1016856Y1281192D01*
X1018730Y1281008D01*
Y1295730D01*
D02*
G37*
G36*
X1153270Y1291992D02*
Y1277270D01*
X1167992D01*
X1167808Y1279144D01*
X1166891Y1282168D01*
X1165401Y1284955D01*
X1163397Y1287397D01*
X1160955Y1289401D01*
X1158168Y1290891D01*
X1155144Y1291808D01*
X1153270Y1291992D01*
D02*
G37*
G36*
X1150730D02*
X1148856Y1291808D01*
X1145832Y1290891D01*
X1143046Y1289401D01*
X1140603Y1287397D01*
X1138599Y1284955D01*
X1137109Y1282168D01*
X1136192Y1279144D01*
X1136008Y1277270D01*
X1150730D01*
Y1291992D01*
D02*
G37*
G36*
X523970Y1293970D02*
X511270D01*
Y1281270D01*
X523970D01*
Y1293970D01*
D02*
G37*
G36*
X508730D02*
X496030D01*
Y1281270D01*
X508730D01*
Y1293970D01*
D02*
G37*
G36*
X1035993Y1295730D02*
X1021270D01*
Y1281008D01*
X1023144Y1281192D01*
X1026168Y1282109D01*
X1028954Y1283599D01*
X1031397Y1285603D01*
X1033401Y1288046D01*
X1034891Y1290832D01*
X1035808Y1293856D01*
X1035993Y1295730D01*
D02*
G37*
G36*
X523970Y1278730D02*
X511270D01*
Y1266030D01*
X523970D01*
Y1278730D01*
D02*
G37*
G36*
X1153270Y1239993D02*
Y1225270D01*
X1167992D01*
X1167808Y1227144D01*
X1166891Y1230168D01*
X1165401Y1232954D01*
X1163397Y1235397D01*
X1160955Y1237401D01*
X1158168Y1238891D01*
X1155144Y1239808D01*
X1153270Y1239993D01*
D02*
G37*
G36*
X1150730D02*
X1148856Y1239808D01*
X1145832Y1238891D01*
X1143046Y1237401D01*
X1140603Y1235397D01*
X1138599Y1232954D01*
X1137109Y1230168D01*
X1136192Y1227144D01*
X1136008Y1225270D01*
X1150730D01*
Y1239993D01*
D02*
G37*
G36*
X1167992Y1222730D02*
X1153270D01*
Y1208008D01*
X1155144Y1208192D01*
X1158168Y1209109D01*
X1160955Y1210599D01*
X1163397Y1212603D01*
X1165401Y1215045D01*
X1166891Y1217832D01*
X1167808Y1220856D01*
X1167992Y1222730D01*
D02*
G37*
G36*
X508730Y1278730D02*
X496030D01*
Y1266030D01*
X508730D01*
Y1278730D01*
D02*
G37*
G36*
X1167992Y1274730D02*
X1153270D01*
Y1260007D01*
X1155144Y1260192D01*
X1158168Y1261109D01*
X1160955Y1262599D01*
X1163397Y1264603D01*
X1165401Y1267046D01*
X1166891Y1269832D01*
X1167808Y1272856D01*
X1167992Y1274730D01*
D02*
G37*
G36*
X1150730D02*
X1136008D01*
X1136192Y1272856D01*
X1137109Y1269832D01*
X1138599Y1267046D01*
X1140603Y1264603D01*
X1143046Y1262599D01*
X1145832Y1261109D01*
X1148856Y1260192D01*
X1150730Y1260007D01*
Y1274730D01*
D02*
G37*
G36*
X809500Y1387000D02*
X795500D01*
Y1385608D01*
X767750D01*
Y1386000D01*
X737250D01*
Y1371500D01*
X767750D01*
Y1374392D01*
X795500D01*
Y1373000D01*
X809500D01*
Y1387000D01*
D02*
G37*
G36*
X824040Y1386540D02*
X818770D01*
Y1381270D01*
X824040D01*
Y1386540D01*
D02*
G37*
G36*
X816230D02*
X810960D01*
Y1381270D01*
X816230D01*
Y1386540D01*
D02*
G37*
G36*
X809000Y1432073D02*
X806059Y1431783D01*
X803232Y1430925D01*
X800626Y1429532D01*
X798342Y1427658D01*
X796468Y1425374D01*
X795075Y1422768D01*
X794217Y1419940D01*
X793927Y1417000D01*
X794217Y1414059D01*
X795075Y1411232D01*
X796468Y1408626D01*
X798342Y1406342D01*
X800626Y1404468D01*
X803232Y1403075D01*
X806059Y1402217D01*
X809000Y1401927D01*
X811941Y1402217D01*
X814768Y1403075D01*
X817374Y1404468D01*
X819658Y1406342D01*
X821532Y1408626D01*
X822925Y1411232D01*
X823783Y1414059D01*
X824073Y1417000D01*
X823783Y1419940D01*
X822925Y1422768D01*
X821532Y1425374D01*
X819658Y1427658D01*
X817374Y1429532D01*
X814768Y1430925D01*
X811941Y1431783D01*
X809000Y1432073D01*
D02*
G37*
G36*
X1075000Y1456096D02*
X1070136Y1455713D01*
X1065391Y1454574D01*
X1060883Y1452707D01*
X1056722Y1450157D01*
X1053012Y1446988D01*
X1049843Y1443278D01*
X1047293Y1439117D01*
X1045426Y1434609D01*
X1044287Y1429865D01*
X1043904Y1425000D01*
X1044287Y1420135D01*
X1045426Y1415391D01*
X1047293Y1410883D01*
X1049843Y1406722D01*
X1053012Y1403012D01*
X1056722Y1399843D01*
X1060883Y1397293D01*
X1065391Y1395426D01*
X1070136Y1394287D01*
X1075000Y1393904D01*
X1079865Y1394287D01*
X1084609Y1395426D01*
X1089117Y1397293D01*
X1093278Y1399843D01*
X1096988Y1403012D01*
X1100157Y1406722D01*
X1102707Y1410883D01*
X1104574Y1415391D01*
X1105713Y1420135D01*
X1106096Y1425000D01*
X1105713Y1429865D01*
X1104574Y1434609D01*
X1102707Y1439117D01*
X1100157Y1443278D01*
X1096988Y1446988D01*
X1093278Y1450157D01*
X1089117Y1452707D01*
X1084609Y1454574D01*
X1079865Y1455713D01*
X1075000Y1456096D01*
D02*
G37*
G36*
X575000D02*
X570135Y1455713D01*
X565391Y1454574D01*
X560883Y1452707D01*
X556722Y1450157D01*
X553012Y1446988D01*
X549843Y1443278D01*
X547293Y1439117D01*
X545426Y1434609D01*
X544287Y1429865D01*
X543904Y1425000D01*
X544287Y1420135D01*
X545426Y1415391D01*
X547293Y1410883D01*
X549843Y1406722D01*
X553012Y1403012D01*
X556722Y1399843D01*
X560883Y1397293D01*
X565391Y1395426D01*
X570135Y1394287D01*
X575000Y1393904D01*
X579864Y1394287D01*
X584609Y1395426D01*
X589117Y1397293D01*
X593278Y1399843D01*
X596988Y1403012D01*
X600157Y1406722D01*
X602707Y1410883D01*
X604574Y1415391D01*
X605713Y1420135D01*
X606096Y1425000D01*
X605713Y1429865D01*
X604574Y1434609D01*
X602707Y1439117D01*
X600157Y1443278D01*
X596988Y1446988D01*
X593278Y1450157D01*
X589117Y1452707D01*
X584609Y1454574D01*
X579864Y1455713D01*
X575000Y1456096D01*
D02*
G37*
G36*
X824040Y1378730D02*
X818770D01*
Y1373460D01*
X824040D01*
Y1378730D01*
D02*
G37*
G36*
X767750Y1368500D02*
X737250D01*
Y1354000D01*
X754392D01*
Y1315000D01*
X754819Y1312854D01*
X756035Y1311035D01*
X783628Y1283441D01*
Y1282171D01*
X769969Y1268512D01*
X616600D01*
X613206Y1268065D01*
X612280Y1267682D01*
X610044Y1266756D01*
X607328Y1264672D01*
X607328Y1264672D01*
X597669Y1255012D01*
X516052D01*
X513767Y1255958D01*
X510000Y1256454D01*
X506233Y1255958D01*
X502723Y1254505D01*
X499708Y1252192D01*
X497395Y1249177D01*
X495941Y1245667D01*
X495446Y1241900D01*
X495941Y1238133D01*
X497395Y1234623D01*
X499708Y1231608D01*
X502723Y1229295D01*
X506233Y1227841D01*
X510000Y1227346D01*
X513767Y1227841D01*
X516052Y1228788D01*
X603100D01*
X603100Y1228788D01*
X606494Y1229235D01*
X607804Y1229777D01*
X609656Y1230545D01*
X612372Y1232628D01*
X612372Y1232628D01*
X612372Y1232628D01*
X622031Y1242288D01*
X775400D01*
X775400Y1242288D01*
X778794Y1242735D01*
X780104Y1243277D01*
X781956Y1244044D01*
X784672Y1246128D01*
X784672Y1246128D01*
X784672Y1246128D01*
X814271Y1275728D01*
X814272Y1275728D01*
X850431Y1311888D01*
X862000D01*
Y1308000D01*
X898000D01*
Y1342000D01*
X862000D01*
Y1338112D01*
X845000D01*
X845000Y1338112D01*
X841606Y1337665D01*
X838444Y1336355D01*
X837086Y1335314D01*
X835728Y1334272D01*
X835728Y1334272D01*
X795728Y1294272D01*
Y1294272D01*
X795728D01*
X792194Y1290737D01*
X765608Y1317323D01*
Y1354000D01*
X767750D01*
Y1368500D01*
D02*
G37*
G36*
X1021270Y1312993D02*
Y1298270D01*
X1035993D01*
X1035808Y1300144D01*
X1034891Y1303168D01*
X1033401Y1305954D01*
X1031397Y1308397D01*
X1028954Y1310401D01*
X1026168Y1311891D01*
X1023144Y1312808D01*
X1021270Y1312993D01*
D02*
G37*
G36*
X1018730D02*
X1016856Y1312808D01*
X1013832Y1311891D01*
X1011046Y1310401D01*
X1008603Y1308397D01*
X1006599Y1305954D01*
X1005109Y1303168D01*
X1004192Y1300144D01*
X1004007Y1298270D01*
X1018730D01*
Y1312993D01*
D02*
G37*
G36*
X816230Y1378730D02*
X810960D01*
Y1373460D01*
X816230D01*
Y1378730D01*
D02*
G37*
G36*
X809000Y1357073D02*
X806059Y1356783D01*
X803232Y1355925D01*
X800626Y1354532D01*
X798342Y1352658D01*
X796468Y1350374D01*
X795075Y1347768D01*
X794217Y1344940D01*
X793927Y1342000D01*
X794217Y1339059D01*
X795075Y1336232D01*
X796468Y1333626D01*
X798342Y1331342D01*
X800626Y1329468D01*
X803232Y1328075D01*
X806059Y1327217D01*
X809000Y1326927D01*
X811941Y1327217D01*
X814768Y1328075D01*
X817374Y1329468D01*
X819658Y1331342D01*
X821532Y1333626D01*
X822925Y1336232D01*
X823783Y1339059D01*
X824073Y1342000D01*
X823783Y1344940D01*
X822925Y1347768D01*
X821532Y1350374D01*
X819658Y1352658D01*
X817374Y1354532D01*
X814768Y1355925D01*
X811941Y1356783D01*
X809000Y1357073D01*
D02*
G37*
G36*
X963000Y1342000D02*
X927000D01*
Y1308000D01*
X963000D01*
Y1316931D01*
X1035604D01*
X1036214Y1315789D01*
X1038276Y1313276D01*
X1040789Y1311214D01*
X1043655Y1309682D01*
X1046765Y1308739D01*
X1050000Y1308420D01*
X1053235Y1308739D01*
X1056345Y1309682D01*
X1059211Y1311214D01*
X1061724Y1313276D01*
X1063786Y1315789D01*
X1065318Y1318655D01*
X1066261Y1321765D01*
X1066580Y1325000D01*
X1066261Y1328235D01*
X1065318Y1331345D01*
X1063786Y1334211D01*
X1061724Y1336724D01*
X1059211Y1338786D01*
X1056345Y1340318D01*
X1053235Y1341261D01*
X1050000Y1341580D01*
X1046765Y1341261D01*
X1043655Y1340318D01*
X1040789Y1338786D01*
X1038276Y1336724D01*
X1036214Y1334211D01*
X1035604Y1333069D01*
X963000D01*
Y1342000D01*
D02*
G37*
G36*
X1018730Y1075730D02*
X1004007D01*
X1004192Y1073856D01*
X1005109Y1070832D01*
X1006599Y1068046D01*
X1008603Y1065603D01*
X1011046Y1063599D01*
X1013832Y1062109D01*
X1016856Y1061192D01*
X1018730Y1061008D01*
Y1075730D01*
D02*
G37*
G36*
X1153270Y1071992D02*
Y1057270D01*
X1167992D01*
X1167808Y1059144D01*
X1166891Y1062168D01*
X1165401Y1064954D01*
X1163397Y1067397D01*
X1160955Y1069401D01*
X1158168Y1070891D01*
X1155144Y1071808D01*
X1153270Y1071992D01*
D02*
G37*
G36*
X1150730D02*
X1148856Y1071808D01*
X1145832Y1070891D01*
X1143046Y1069401D01*
X1140603Y1067397D01*
X1138599Y1064954D01*
X1137109Y1062168D01*
X1136192Y1059144D01*
X1136008Y1057270D01*
X1150730D01*
Y1071992D01*
D02*
G37*
G36*
X1021270Y1092992D02*
Y1078270D01*
X1035993D01*
X1035808Y1080144D01*
X1034891Y1083168D01*
X1033401Y1085954D01*
X1031397Y1088397D01*
X1028954Y1090401D01*
X1026168Y1091891D01*
X1023144Y1092808D01*
X1021270Y1092992D01*
D02*
G37*
G36*
X1018730D02*
X1016856Y1092808D01*
X1013832Y1091891D01*
X1011046Y1090401D01*
X1008603Y1088397D01*
X1006599Y1085954D01*
X1005109Y1083168D01*
X1004192Y1080144D01*
X1004007Y1078270D01*
X1018730D01*
Y1092992D01*
D02*
G37*
G36*
X1035993Y1075730D02*
X1021270D01*
Y1061008D01*
X1023144Y1061192D01*
X1026168Y1062109D01*
X1028954Y1063599D01*
X1031397Y1065603D01*
X1033401Y1068046D01*
X1034891Y1070832D01*
X1035808Y1073856D01*
X1035993Y1075730D01*
D02*
G37*
G36*
X1167992Y1054730D02*
X1153270D01*
Y1040007D01*
X1155144Y1040192D01*
X1158168Y1041109D01*
X1160955Y1042599D01*
X1163397Y1044603D01*
X1165401Y1047046D01*
X1166891Y1049832D01*
X1167808Y1052856D01*
X1167992Y1054730D01*
D02*
G37*
G36*
Y1002730D02*
X1153270D01*
Y988007D01*
X1155144Y988192D01*
X1158168Y989109D01*
X1160955Y990599D01*
X1163397Y992603D01*
X1165401Y995045D01*
X1166891Y997832D01*
X1167808Y1000856D01*
X1167992Y1002730D01*
D02*
G37*
G36*
X1150730D02*
X1136008D01*
X1136192Y1000856D01*
X1137109Y997832D01*
X1138599Y995045D01*
X1140603Y992603D01*
X1143046Y990599D01*
X1145832Y989109D01*
X1148856Y988192D01*
X1150730Y988007D01*
Y1002730D01*
D02*
G37*
G36*
X1020000Y999580D02*
X1016766Y999261D01*
X1013655Y998318D01*
X1010789Y996786D01*
X1008276Y994724D01*
X1006214Y992211D01*
X1005357Y990608D01*
X595000D01*
X592854Y990181D01*
X591035Y988965D01*
X551035Y948965D01*
X549819Y947146D01*
X549392Y945000D01*
Y912323D01*
X537677Y900608D01*
X524430D01*
Y909430D01*
X495570D01*
Y880570D01*
X524430D01*
Y889392D01*
X540000D01*
X542146Y889819D01*
X543965Y891035D01*
X543965Y891035D01*
X543965Y891035D01*
X558965Y906035D01*
X558965Y906035D01*
X558965Y906035D01*
X560181Y907854D01*
X560608Y910000D01*
Y942677D01*
X597323Y979392D01*
X1003852D01*
X1004682Y976655D01*
X1006214Y973789D01*
X1008276Y971276D01*
X1010789Y969214D01*
X1013655Y967682D01*
X1016766Y966739D01*
X1020000Y966420D01*
X1023235Y966739D01*
X1026345Y967682D01*
X1029211Y969214D01*
X1031724Y971276D01*
X1033786Y973789D01*
X1035318Y976655D01*
X1036261Y979765D01*
X1036580Y983000D01*
X1036261Y986235D01*
X1035318Y989345D01*
X1033786Y992211D01*
X1031724Y994724D01*
X1029211Y996786D01*
X1026345Y998318D01*
X1023235Y999261D01*
X1020000Y999580D01*
D02*
G37*
G36*
X1150730Y1054730D02*
X1136008D01*
X1136192Y1052856D01*
X1137109Y1049832D01*
X1138599Y1047046D01*
X1140603Y1044603D01*
X1143046Y1042599D01*
X1145832Y1041109D01*
X1148856Y1040192D01*
X1150730Y1040007D01*
Y1054730D01*
D02*
G37*
G36*
X1153270Y1019993D02*
Y1005270D01*
X1167992D01*
X1167808Y1007144D01*
X1166891Y1010168D01*
X1165401Y1012954D01*
X1163397Y1015397D01*
X1160955Y1017401D01*
X1158168Y1018891D01*
X1155144Y1019808D01*
X1153270Y1019993D01*
D02*
G37*
G36*
X1150730D02*
X1148856Y1019808D01*
X1145832Y1018891D01*
X1143046Y1017401D01*
X1140603Y1015397D01*
X1138599Y1012954D01*
X1137109Y1010168D01*
X1136192Y1007144D01*
X1136008Y1005270D01*
X1150730D01*
Y1019993D01*
D02*
G37*
G36*
X511270Y1217723D02*
Y1205070D01*
X523923D01*
X523610Y1207447D01*
X522203Y1210845D01*
X519963Y1213764D01*
X517045Y1216003D01*
X513647Y1217410D01*
X511270Y1217723D01*
D02*
G37*
G36*
X508730D02*
X506353Y1217410D01*
X502955Y1216003D01*
X500037Y1213764D01*
X497797Y1210845D01*
X496390Y1207447D01*
X496077Y1205070D01*
X508730D01*
Y1217723D01*
D02*
G37*
G36*
X701040Y1203330D02*
X691270D01*
Y1193560D01*
X701040D01*
Y1203330D01*
D02*
G37*
G36*
X1150730Y1222730D02*
X1136008D01*
X1136192Y1220856D01*
X1137109Y1217832D01*
X1138599Y1215045D01*
X1140603Y1212603D01*
X1143046Y1210599D01*
X1145832Y1209109D01*
X1148856Y1208192D01*
X1150730Y1208008D01*
Y1222730D01*
D02*
G37*
G36*
X701040Y1215640D02*
X691270D01*
Y1205870D01*
X701040D01*
Y1215640D01*
D02*
G37*
G36*
X688730D02*
X678960D01*
Y1205870D01*
X688730D01*
Y1215640D01*
D02*
G37*
G36*
Y1203330D02*
X678960D01*
Y1193560D01*
X688730D01*
Y1203330D01*
D02*
G37*
G36*
X1050000Y1191580D02*
X1046765Y1191261D01*
X1043655Y1190318D01*
X1040789Y1188786D01*
X1038276Y1186724D01*
X1036214Y1184211D01*
X1034682Y1181345D01*
X1033739Y1178234D01*
X1033420Y1175000D01*
X1033739Y1171765D01*
X1033761Y1171692D01*
X1022677Y1160608D01*
X580000D01*
X577854Y1160181D01*
X576035Y1158965D01*
X556035Y1138965D01*
X554819Y1137146D01*
X554392Y1135000D01*
Y982323D01*
X534577Y962508D01*
X523296D01*
X522605Y964177D01*
X520292Y967192D01*
X517277Y969505D01*
X513767Y970959D01*
X510000Y971454D01*
X506233Y970959D01*
X502723Y969505D01*
X499708Y967192D01*
X497395Y964177D01*
X495941Y960667D01*
X495446Y956900D01*
X495941Y953133D01*
X497395Y949623D01*
X499708Y946608D01*
X502723Y944295D01*
X506233Y942841D01*
X510000Y942346D01*
X513767Y942841D01*
X517277Y944295D01*
X520292Y946608D01*
X522605Y949623D01*
X523296Y951292D01*
X536900D01*
X539046Y951719D01*
X540865Y952935D01*
X540865Y952935D01*
X540865Y952935D01*
X563965Y976035D01*
X563965Y976035D01*
X563965Y976035D01*
X565181Y977854D01*
X565608Y980000D01*
Y1132677D01*
X582323Y1149392D01*
X1025000D01*
X1027146Y1149819D01*
X1028965Y1151035D01*
X1028965Y1151035D01*
X1028965Y1151035D01*
X1039886Y1161955D01*
X1040789Y1161214D01*
X1043655Y1159682D01*
X1046765Y1158739D01*
X1050000Y1158420D01*
X1053235Y1158739D01*
X1056345Y1159682D01*
X1059211Y1161214D01*
X1061724Y1163276D01*
X1063786Y1165789D01*
X1065318Y1168655D01*
X1066261Y1171765D01*
X1066580Y1175000D01*
X1066261Y1178234D01*
X1065318Y1181345D01*
X1063786Y1184211D01*
X1061724Y1186724D01*
X1059211Y1188786D01*
X1056345Y1190318D01*
X1053235Y1191261D01*
X1050000Y1191580D01*
D02*
G37*
G36*
X963000Y1122000D02*
X927000D01*
Y1088000D01*
X963000D01*
Y1096931D01*
X1035604D01*
X1036214Y1095789D01*
X1038276Y1093276D01*
X1040789Y1091214D01*
X1043655Y1089682D01*
X1046765Y1088739D01*
X1050000Y1088420D01*
X1053235Y1088739D01*
X1056345Y1089682D01*
X1059211Y1091214D01*
X1061724Y1093276D01*
X1063786Y1095789D01*
X1065318Y1098655D01*
X1066261Y1101765D01*
X1066580Y1105000D01*
X1066261Y1108234D01*
X1065318Y1111345D01*
X1063786Y1114211D01*
X1061724Y1116724D01*
X1059211Y1118786D01*
X1056345Y1120318D01*
X1053235Y1121261D01*
X1050000Y1121580D01*
X1046765Y1121261D01*
X1043655Y1120318D01*
X1040789Y1118786D01*
X1038276Y1116724D01*
X1036214Y1114211D01*
X1035604Y1113069D01*
X963000D01*
Y1122000D01*
D02*
G37*
G36*
X605000Y1133112D02*
X601606Y1132665D01*
X598444Y1131355D01*
X595728Y1129272D01*
X593644Y1126556D01*
X592335Y1123394D01*
X591888Y1120000D01*
X592335Y1116606D01*
X593644Y1113444D01*
X595728Y1110728D01*
X610728Y1095728D01*
X610728Y1095728D01*
X613444Y1093644D01*
X616606Y1092335D01*
X616606Y1092335D01*
X616606Y1092335D01*
D01*
X616606Y1092335D01*
X616606Y1092335D01*
X620000Y1091888D01*
X862000D01*
Y1088000D01*
X898000D01*
Y1122000D01*
X862000D01*
Y1118112D01*
X625431D01*
X614272Y1129272D01*
X611556Y1131355D01*
X608394Y1132665D01*
X605000Y1133112D01*
D02*
G37*
G36*
X523923Y1202530D02*
X511270D01*
Y1189877D01*
X513647Y1190190D01*
X517045Y1191597D01*
X519963Y1193836D01*
X522203Y1196755D01*
X523610Y1200153D01*
X523923Y1202530D01*
D02*
G37*
G36*
X508730D02*
X496077D01*
X496390Y1200153D01*
X497797Y1196755D01*
X500037Y1193836D01*
X502955Y1191597D01*
X506353Y1190190D01*
X508730Y1189877D01*
Y1202530D01*
D02*
G37*
G36*
X1020000Y1219580D02*
X1016766Y1219261D01*
X1013655Y1218318D01*
X1010789Y1216786D01*
X1008276Y1214724D01*
X1006214Y1212211D01*
X1004682Y1209345D01*
X1003739Y1206235D01*
X1003420Y1203000D01*
X1003739Y1199765D01*
X1003761Y1199692D01*
X984677Y1180608D01*
X570000D01*
X567854Y1180181D01*
X566035Y1178965D01*
X536035Y1148965D01*
X534819Y1147146D01*
X534392Y1145000D01*
Y1012323D01*
X525603Y1003534D01*
X524430Y1004020D01*
Y1009430D01*
X495570D01*
Y980570D01*
X524430D01*
Y989392D01*
X525000D01*
X527146Y989819D01*
X528965Y991035D01*
X543965Y1006035D01*
X545181Y1007854D01*
X545608Y1010000D01*
X545608Y1010000D01*
X545608Y1010000D01*
Y1010000D01*
Y1142677D01*
X572323Y1169392D01*
X987000D01*
X989146Y1169819D01*
X990965Y1171035D01*
X990965Y1171035D01*
X990965Y1171035D01*
X1009886Y1189955D01*
X1010789Y1189214D01*
X1013655Y1187682D01*
X1016766Y1186739D01*
X1020000Y1186420D01*
X1023235Y1186739D01*
X1026345Y1187682D01*
X1029211Y1189214D01*
X1031724Y1191276D01*
X1033786Y1193789D01*
X1035318Y1196655D01*
X1036261Y1199765D01*
X1036580Y1203000D01*
X1036261Y1206235D01*
X1035318Y1209345D01*
X1033786Y1212211D01*
X1031724Y1214724D01*
X1029211Y1216786D01*
X1026345Y1218318D01*
X1023235Y1219261D01*
X1020000Y1219580D01*
D02*
G37*
%LPD*%
D10*
X945000Y1325000D02*
D03*
X880000D02*
D03*
X945000Y885000D02*
D03*
X880000D02*
D03*
X945000Y665000D02*
D03*
X880000D02*
D03*
X945000Y445000D02*
D03*
X880000D02*
D03*
X945000Y1105000D02*
D03*
X880000D02*
D03*
D11*
X745000Y1378750D02*
D03*
Y1361250D02*
D03*
X760000Y1378750D02*
D03*
Y1361250D02*
D03*
D12*
X817500Y1380000D02*
D03*
X802500D02*
D03*
D13*
X690000Y1204600D02*
X825000D01*
X1110000Y1292000D02*
X1133000D01*
X1020000D02*
X1110000D01*
Y1350000D01*
X1090000Y1370000D02*
X1110000Y1350000D01*
X1030000Y1370000D02*
X1090000D01*
X510000Y1241900D02*
X603100D01*
X525000Y1203800D02*
X688800D01*
X616600Y1255400D02*
X690000D01*
X603100Y1241900D02*
X616600Y1255400D01*
X932600Y1204600D02*
X1020000Y1292000D01*
X1133000D02*
X1147000Y1278000D01*
Y838000D02*
Y1278000D01*
Y618000D02*
Y838000D01*
Y398000D02*
Y618000D01*
Y342000D02*
Y398000D01*
X1020000Y412000D02*
X1133000D01*
X1147000Y398000D01*
X1020000Y632000D02*
X1133000D01*
X1147000Y618000D01*
X1020000Y852000D02*
X1133000D01*
X1147000Y838000D01*
X1020000Y1072000D02*
X1133000D01*
X620000Y1105000D02*
X880000D01*
X605000Y1120000D02*
X620000Y1105000D01*
X650000Y885000D02*
X885000D01*
X605000Y930000D02*
X650000Y885000D01*
X755000Y445000D02*
X880000D01*
X605000Y595000D02*
X755000Y445000D01*
X675000Y665000D02*
X880000D01*
X605000Y735000D02*
X675000Y665000D01*
X510000Y1280000D02*
X580000D01*
X805000Y1285000D02*
X845000Y1325000D01*
X880000D01*
X690000Y1255400D02*
X775400D01*
X805000Y1285000D01*
X580000Y1280000D02*
X750000Y1450000D01*
X880000D01*
X950000D01*
X1030000Y1370000D01*
D14*
X760000Y1315000D02*
X795000Y1280000D01*
X855000Y1380000D02*
X880000Y1405000D01*
X595000Y955000D02*
X1050000D01*
X827000Y328000D02*
X1020000D01*
X560000Y595000D02*
X827000Y328000D01*
X510000Y595000D02*
X560000D01*
X815000Y295000D02*
X1050000D01*
X553100Y556900D02*
X815000Y295000D01*
X510000Y556900D02*
X553100D01*
X740000Y545000D02*
X1020000D01*
X590000Y695000D02*
X740000Y545000D01*
X510000Y695000D02*
X590000D01*
X725000Y515000D02*
X1050000D01*
X583100Y656900D02*
X725000Y515000D01*
X510000Y656900D02*
X583100D01*
X680000Y735000D02*
X1050000D01*
X658100Y756900D02*
X680000Y735000D01*
X510000Y756900D02*
X658100D01*
X690000Y765000D02*
X1020000D01*
X660000Y795000D02*
X690000Y765000D01*
X510000Y795000D02*
X660000D01*
X570000Y930000D02*
X595000Y955000D01*
X570000Y880000D02*
Y930000D01*
X546900Y856900D02*
X570000Y880000D01*
X510000Y856900D02*
X546900D01*
X555000Y945000D02*
X595000Y985000D01*
X555000Y910000D02*
Y945000D01*
X540000Y895000D02*
X555000Y910000D01*
X510000Y895000D02*
X540000D01*
X595000Y985000D02*
X1020000D01*
X987000Y1175000D02*
X1020000Y1208000D01*
X570000Y1175000D02*
X987000D01*
X540000Y1145000D02*
X570000Y1175000D01*
X540000Y1010000D02*
Y1145000D01*
X525000Y995000D02*
X540000Y1010000D01*
X510000Y995000D02*
X525000D01*
X1045000Y1175000D02*
X1050000D01*
X1025000Y1155000D02*
X1045000Y1175000D01*
X580000Y1155000D02*
X1025000D01*
X560000Y1135000D02*
X580000Y1155000D01*
X560000Y980000D02*
Y1135000D01*
X536900Y956900D02*
X560000Y980000D01*
X510000Y956900D02*
X536900D01*
X880000Y1405000D02*
Y1450000D01*
X817500Y1380000D02*
X855000D01*
X761250D02*
X802500D01*
X760000Y1378750D02*
X761250Y1380000D01*
X745000Y1378750D02*
X760000D01*
X760000Y1315000D02*
Y1361250D01*
X760000Y1361250D02*
X760000Y1361250D01*
X745000Y1361250D02*
X760000D01*
D15*
X945000Y1325000D02*
X945000Y1325000D01*
X1050000D01*
X945000Y1105000D02*
X945000Y1105000D01*
X1050000D01*
X945000Y885000D02*
X945000Y885000D01*
X1050000D01*
X945000Y445000D02*
X945000Y445000D01*
X1050000D01*
X945000Y665000D02*
X1050000D01*
X945000Y665000D02*
X945000Y665000D01*
X945000Y665000D02*
X945000D01*
D16*
X510000Y1241900D02*
D03*
Y1203800D02*
D03*
Y556900D02*
D03*
Y656900D02*
D03*
Y756900D02*
D03*
Y856900D02*
D03*
Y956900D02*
D03*
D17*
Y1280000D02*
D03*
Y595000D02*
D03*
Y695000D02*
D03*
Y795000D02*
D03*
Y895000D02*
D03*
Y995000D02*
D03*
D18*
X575000Y200000D02*
D03*
Y1425000D02*
D03*
X1075000Y200000D02*
D03*
Y1425000D02*
D03*
D19*
X690000Y1204600D02*
D03*
D20*
Y1255400D02*
D03*
D21*
X809000Y1417000D02*
D03*
Y1342000D02*
D03*
D22*
X1152000Y1276000D02*
D03*
X1020000Y1297000D02*
D03*
X1050000Y1325000D02*
D03*
X1020000Y1203000D02*
D03*
X1050000Y1175000D02*
D03*
X1152000Y1224000D02*
D03*
Y1004000D02*
D03*
X1050000Y955000D02*
D03*
X1020000Y983000D02*
D03*
X1050000Y1105000D02*
D03*
X1020000Y1077000D02*
D03*
X1152000Y1056000D02*
D03*
Y836000D02*
D03*
X1020000Y857000D02*
D03*
X1050000Y885000D02*
D03*
X1020000Y763000D02*
D03*
X1050000Y735000D02*
D03*
X1152000Y784000D02*
D03*
Y564000D02*
D03*
X1050000Y515000D02*
D03*
X1020000Y543000D02*
D03*
X1050000Y665000D02*
D03*
X1020000Y637000D02*
D03*
X1152000Y616000D02*
D03*
Y396000D02*
D03*
X1020000Y417000D02*
D03*
X1050000Y445000D02*
D03*
X1020000Y323000D02*
D03*
X1050000Y295000D02*
D03*
X1152000Y344000D02*
D03*
D23*
X625000Y1375000D02*
D03*
X825000Y1204600D02*
D03*
Y1025000D02*
D03*
Y925000D02*
D03*
Y800000D02*
D03*
Y700000D02*
D03*
Y400000D02*
D03*
Y600000D02*
D03*
X900000Y250000D02*
D03*
X550000Y400000D02*
D03*
X700000Y250000D02*
D03*
X603100Y1241900D02*
D03*
X605000Y1120000D02*
D03*
X605000Y930000D02*
D03*
Y595000D02*
D03*
Y735000D02*
D03*
M02*
